EUNIS Habitat Classification • eunis.habitats
…
There are four EUNIS classifications included in the one single data set eunis_habitats, namely:

EUNIS classification from 2007, revised in 2012.

EUNIS marine classification from 2019

EUNIS marine classification from 2022

EUNIS terrestrial classification from 2021

For example, to access the marine habitats classified according to EUNIS revision of 2022:

subset(eunis_habitats, classification == "EUNIS_M_2022")
#> # A tibble: 1,942 × 8
#>    classification section version group   level code    name         description
#>    <chr>          <chr>   <chr>   <chr>   <int> <chr>   <chr>        <chr>      
#>  1 EUNIS_M_2022   marine  2022    benthic     1 M       Marine bent… "Marine be…
#>  2 EUNIS_M_2022   marine  2022    benthic     2 MA1     Littoral ro… "Littoral …
#>  3 EUNIS_M_2022   marine  2022    benthic     3 MA11    Arctic litt… "Arctic li…
#>  4 EUNIS_M_2022   marine  2022    benthic     3 MA12    Atlantic li… "Atlantic …
#>  5 EUNIS_M_2022   marine  2022    benthic     4 MA121   Lichens or … "Lichen co…
#>  6 EUNIS_M_2022   marine  2022    benthic     5 MA1211  Yellow and … "Vertical …
#>  7 EUNIS_M_2022   marine  2022    benthic     5 MA1212  Prasiola st… "Exposed t…
#>  8 EUNIS_M_2022   marine  2022    benthic     5 MA1213  Verrucaria … "Bedrock o…
#>  9 EUNIS_M_2022   marine  2022    benthic     6 MA12131 Verrucaria … "The litto…
#> 10 EUNIS_M_2022   marine  2022    benthic     6 MA12132 Verrucaria … "Upper lit…
#> # ℹ 1,932 more rows

Check the documentation for more details: ?eunis_habitats.

Crosswalks (mapping of habitat codes)

From EUNIS 2012 to EUNIS Marine 2022:

crosswalk(
  code = c("A3.4", "A3.5"),
  from = "EUNIS_2012",
  to = "EUNIS_M_2022",
  unnest = TRUE
)
#> # A tibble: 64 × 2
#>    eunis_2012_code eunis_m_2022_code
#>    <chr>           <chr>            
#>  1 A3.4            MA133            
#>  2 A3.4            MA134            
#>  3 A3.4            MA135            
#>  4 A3.4            MA136            
#>  5 A3.4            MA137            
#>  6 A3.4            MB13             
#>  7 A3.4            MB131            
#>  8 A3.4            MB1311           
#>  9 A3.4            MB1312           
#> 10 A3.4            MB1313           
#> # ℹ 54 more rows
…
