Convert habitat codes — crosswalk • eunis.habitats
…
A tibble of two variables with the from and
to codes, respectively. The actual column names will vary according to the
specific crosswalk queried, see Examples.

    Examples

# From EUNIS 2012 to EUNIS Marine 2022
crosswalk(
  code = c("A3.4", "A3.5"),
  from = "EUNIS_2012",
  to = "EUNIS_M_2022",
  unnest = TRUE
)
#> # A tibble: 64 × 2
#>    eunis_2012_code eunis_m_2022_code
#>    <chr>           <chr>            
#>  1 A3.4            MA133            
#>  2 A3.4            MA134            
#>  3 A3.4            MA135            
#>  4 A3.4            MA136            
#>  5 A3.4            MA137            
#>  6 A3.4            MB13             
#>  7 A3.4            MB131            
#>  8 A3.4            MB1311           
#>  9 A3.4            MB1312           
#> 10 A3.4            MB1313           
#> # ℹ 54 more rows
…
# From Annex I to EUNIS Marine 2019
crosswalk(
code = c("8330", "1160"),
from = "Annex_I",
to = "EUNIS_M_2019", unnest = TRUE
)
#> # A tibble: 966 × 2
#>    annex_i_code eunis_m_2019_code
#>    <chr>        <chr>            
#>  1 8330         MA12             
#>  2 8330         MA127            
#>  3 8330         MA1271           
#>  4 8330         MA1272           
#>  5 8330         MA1273           
#>  6 8330         MA1274           
#>  7 8330         MA1275           
#>  8 8330         MA1276           
#>  9 8330         MA12761          
#> 10 8330         MA1277           
#> # ℹ 956 more rows
…
