EUNIS Habitats — eunis_habitats • eunis.habitats
…
    Examples

# EUNIS 2012
subset(eunis_habitats, classification == "EUNIS_2012")
#> # A tibble: 5,285 × 8
#>    classification section version group level code    name           description
#>    <chr>          <chr>   <chr>   <chr> <int> <chr>   <chr>          <chr>      
#>  1 EUNIS_2012     NA      2012    NA        1 A       Marine habita… "Marine ha…
#>  2 EUNIS_2012     NA      2012    NA        2 A1      Littoral rock… "Littoral …
#>  3 EUNIS_2012     NA      2012    NA        3 A1.1    High energy l… "Extremely…
#>  4 EUNIS_2012     NA      2012    NA        4 A1.11   Mussel and/or… "Communiti…
#>  5 EUNIS_2012     NA      2012    NA        5 A1.111  [Mytilus edul… "On very e…
#>  6 EUNIS_2012     NA      2012    NA        5 A1.112  [Chthamalus] … "Very expo…
#>  7 EUNIS_2012     NA      2012    NA        6 A1.1121 [Chthamalus m… "Very expo…
#>  8 EUNIS_2012     NA      2012    NA        6 A1.1122 [Chthamalus] … "Areas of …
#>  9 EUNIS_2012     NA      2012    NA        5 A1.113  [Semibalanus … "Exposed t…
#> 10 EUNIS_2012     NA      2012    NA        6 A1.1131 [Semibalanus … "Very expo…
#> # ℹ 5,275 more rows

# EUNIS Marine 2019
subset(eunis_habitats, classification == "EUNIS_M_2019")
#> # A tibble: 1,939 × 8
#>    classification section version group   level code    name         description
#>    <chr>          <chr>   <chr>   <chr>   <int> <chr>   <chr>        <chr>      
#>  1 EUNIS_M_2019   marine  2019    benthic     1 M       Marine bent… "Marine be…
#>  2 EUNIS_M_2019   marine  2019    benthic     2 MA1     Littoral ro… "Littoral …
#>  3 EUNIS_M_2019   marine  2019    benthic     3 MA11    Arctic litt… "Arctic li…
#>  4 EUNIS_M_2019   marine  2019    benthic     3 MA12    Atlantic li… "Atlantic …
#>  5 EUNIS_M_2019   marine  2019    benthic     4 MA121   Lichens or … "Lichen co…
#>  6 EUNIS_M_2019   marine  2019    benthic     5 MA1211  Yellow and … "Vertical …
#>  7 EUNIS_M_2019   marine  2019    benthic     5 MA1212  Prasiola st… "Exposed t…
#>  8 EUNIS_M_2019   marine  2019    benthic     5 MA1213  Verrucaria … "Bedrock o…
#>  9 EUNIS_M_2019   marine  2019    benthic     6 MA12131 Verrucaria … "The litto…
#> 10 EUNIS_M_2019   marine  2019    benthic     6 MA12132 Verrucaria … "Upper lit…
#> # ℹ 1,929 more rows

# EUNIS Marine 2022
subset(eunis_habitats, classification == "EUNIS_M_2022")
#> # A tibble: 1,942 × 8
#>    classification section version group   level code    name         description
#>    <chr>          <chr>   <chr>   <chr>   <int> <chr>   <chr>        <chr>      
#>  1 EUNIS_M_2022   marine  2022    benthic     1 M       Marine bent… "Marine be…
#>  2 EUNIS_M_2022   marine  2022    benthic     2 MA1     Littoral ro… "Littoral …
#>  3 EUNIS_M_2022   marine  2022    benthic     3 MA11    Arctic litt… "Arctic li…
#>  4 EUNIS_M_2022   marine  2022    benthic     3 MA12    Atlantic li… "Atlantic …
#>  5 EUNIS_M_2022   marine  2022    benthic     4 MA121   Lichens or … "Lichen co…
#>  6 EUNIS_M_2022   marine  2022    benthic     5 MA1211  Yellow and … "Vertical …
#>  7 EUNIS_M_2022   marine  2022    benthic     5 MA1212  Prasiola st… "Exposed t…
#>  8 EUNIS_M_2022   marine  2022    benthic     5 MA1213  Verrucaria … "Bedrock o…
#>  9 EUNIS_M_2022   marine  2022    benthic     6 MA12131 Verrucaria … "The litto…
#> 10 EUNIS_M_2022   marine  2022    benthic     6 MA12132 Verrucaria … "Upper lit…
#> # ℹ 1,932 more rows

# EUNIS Terrestrial 2021
subset(eunis_habitats, classification == "EUNIS_T_2021")
#> # A tibble: 3,949 × 8
#>    classification section     version group   level code  name       description
#>    <chr>          <chr>       <chr>   <chr>   <int> <chr> <chr>      <chr>      
#>  1 EUNIS_T_2021   terrestrial 2021_1  coastal     1 N     Coastal h… Coastal ha…
#>  2 EUNIS_T_2021   terrestrial 2021_1  coastal     2 N1    Coastal d… Sand-cover…
#>  3 EUNIS_T_2021   terrestrial 2021_1  coastal     3 N11   Atlantic,… Atlantic, …
#>  4 EUNIS_T_2021   terrestrial 2021_1  coastal     4 N111  Boreo-Arc… Annual com…
#>  5 EUNIS_T_2021   terrestrial 2021_1  coastal     4 N112  Middle Eu… Annual hal…
#>  6 EUNIS_T_2021   terrestrial 2021_1  coastal     5 N1121 Baltic sa… Annual dri…
#>  7 EUNIS_T_2021   terrestrial 2021_1  coastal     4 N113  Unvegetat… Sandy beac…
#>  8 EUNIS_T_2021   terrestrial 2021_1  coastal     5 N1131 Baltic un… No descrip…
#>  9 EUNIS_T_2021   terrestrial 2021_1  coastal     5 N1132 Baltic un… No descrip…
#> 10 EUNIS_T_2021   terrestrial 2021_1  coastal     4 N114  Biocenosi… Area corre…
#> # ℹ 3,939 more rows
…
